"id_naf1993_lv4_class","id_naf1993_lv3_group","libelle"
"00.0","00","Sans activité ou en attente d'affectation"
"01.1","01","Culture"
"01.2","01","Elevage"
"01.3","01","Culture et élevage associés"
"01.4","01","Services annexes à l'agriculture"
"01.5","01","Chasse"
"02.0","02","Sylviculture, exploitation forestière, services annexes"
"05.0","05","Pêche, aquaculture"
"10.1","10","Extraction et agglomération de la houille"
"10.2","10","Extraction et agglomération du lignite"
"10.3","10","Extraction et agglomération de la tourbe"
"11.1","11","Extraction d'hydrocarbures"
"11.2","11","Services annexes à l'extraction d'hydrocarbures"
"12.0","12","Extraction de minerais d'uranium"
"13.1","13","Extraction de minerais de fer"
"13.2","13","Extraction de minerais de métaux non ferreux"
"14.1","14","Extraction de pierres"
"14.2","14","Extraction de sables et d'argiles"
"14.3","14","Extraction de minéraux pour l'industrie chimique et d'engrais naturels"
"14.4","14","Production de sel"
"14.5","14","Activités extractives n.c.a."
"15.1","15","Industrie des viandes"
"15.2","15","Industrie du poisson"
"15.3","15","Industrie des fruits et légumes"
"15.4","15","Industrie des corps gras"
"15.5","15","Industrie laitière"
"15.6","15","Travail des grains ; fabrication de produits amylacés"
"15.7","15","Fabrication d'aliments pour animaux"
"15.8","15","Autres industries alimentaires"
"15.9","15","Industrie des boissons"
"16.0","16","Industrie du tabac"
"17.1","17","Filature"
"17.2","17","Tissage"
"17.3","17","Ennoblissement textile"
"17.4","17","Fabrication d'articles textiles"
"17.5","17","Autres industries textiles"
"17.6","17","Fabrication d'étoffes à maille"
"17.7","17","Fabrication d'articles à maille"
"18.1","18","Fabrication de vêtements en cuir"
"18.2","18","Fabrication de vêtements en textile"
"18.3","18","Industrie des fourrures"
"19.1","19","Apprêt et tannage des cuirs"
"19.2","19","Fabrication d'articles de voyage et de maroquinerie"
"19.3","19","Fabrication de chaussures"
"20.1","20","Sciage, rabotage, imprégnation du bois"
"20.2","20","Fabrication de panneaux de bois"
"20.3","20","Fabrication de charpentes et de menuiseries"
"20.4","20","Fabrication d'emballages en bois"
"20.5","20","Fabrication d'objets divers en bois, liège ou vannerie"
"21.1","21","Fabrication de pâte à papier, de papier et de carton"
"21.2","21","Fabrication d'articles en papier ou en carton"
"22.1","22","Edition"
"22.2","22","Imprimerie"
"22.3","22","Reproduction d'enregistrements"
"23.1","23","Cokéfaction"
"23.2","23","Raffinage de pétrole"
"23.3","23","Elaboration et transformation de matières nucléaires"
"24.1","24","Industrie chimique de base"
"24.2","24","Fabrication de produits agrochimiques"
"24.3","24","Fabrication de peintures et vernis"
"24.4","24","Industrie pharmaceutique"
"24.5","24","Fabrication de savons, de parfums et de produits d'entretien"
"24.6","24","Fabrication d'autres produits chimiques"
"24.7","24","Fabrication de fibres artificielles ou synthétiques"
"25.1","25","Industrie du caoutchouc"
"25.2","25","Transformation des matières plastiques"
"26.1","26","Fabrication de verre et d'articles en verre"
"26.2","26","Fabrication de produits céramiques"
"26.3","26","Fabrication de carreaux en céramique"
"26.4","26","Fabrication de tuiles et briques en terre cuite"
"26.5","26","Fabrication de ciment, chaux et plâtre"
"26.6","26","Fabrication d'ouvrages en béton ou en plâtre"
"26.7","26","Travail de la pierre"
"26.8","26","Fabrication de produits minéraux divers"
"27.1","27","Sidérurgie (CECA)"
"27.2","27","Fabrication de tubes"
"27.3","27","Première transformation de l'acier (non CECA)"
"27.4","27","Production de métaux non ferreux"
"27.5","27","Fonderie"
"28.1","28","Fabrication d'éléments en métal pour la construction"
"28.2","28","Fabrication de réservoirs métalliques et de chaudières pour le chauffage central"
"28.3","28","Chaudronnerie"
"28.4","28","Forge, emboutissage, estampage ; métallurgie des poudres"
"28.5","28","Traitement des métaux ; mécanique générale"
"28.6","28","Fabrication de coutellerie, d'outillage et de quincaillerie"
"28.7","28","Fabrication d'autres ouvrages en métaux"
"29.1","29","Fabrication d'équipements mécaniques"
"29.2","29","Fabrication de machines d'usage général"
"29.3","29","Fabrication de machines agricoles"
"29.4","29","Fabrication de machines-outils"
"29.5","29","Fabrication d'autres machines d'usage spécifique"
"29.6","29","Fabrication d'armes et de munitions"
"29.7","29","Fabrication d'appareils domestiques"
"30.0","30","Fabrication de machines de bureau et de matériel informatique"
"31.1","31","Fabrication de moteurs, génératrices et transformateurs électriques"
"31.2","31","Fabrication de matériel de distribution et de commande électrique"
"31.3","31","Fabrication de fils et câbles isolés"
"31.4","31","Fabrication d'accumulateurs et de piles électriques"
"31.5","31","Fabrication de lampes et d'appareils d'éclairage"
"31.6","31","Fabrication d'autres matériels électriques"
"32.1","32","Fabrication de composants électroniques"
"32.2","32","Fabrication d'appareils d'émission et de transmission"
"32.3","32","Fabrication d'appareils de réception, enregistrement ou reproduction du son et de l'image"
"33.1","33","Fabrication de matériel médico-chirurgical et d'orthopédie"
"33.2","33","Fabrication d'instruments de mesure et de contrôle"
"33.3","33","Fabrication d'équipements de contrôle des processus industriels"
"33.4","33","Fabrication de matériels optique et photographique"
"33.5","33","Horlogerie"
"34.1","34","Construction de véhicules automobiles"
"34.2","34","Fabrication de carrosseries et remorques"
"34.3","34","Fabrication d'équipements automobiles"
"35.1","35","Construction navale"
"35.2","35","Construction de matériel ferroviaire roulant"
"35.3","35","Construction aéronautique et spatiale"
"35.4","35","Fabrication de motocycles et de bicyclettes"
"35.5","35","Fabrication de matériels de transport n.c.a."
"36.1","36","Fabrication de meubles"
"36.2","36","Bijouterie"
"36.3","36","Fabrication d'instruments de musique"
"36.4","36","Fabrication d'articles de sport"
"36.5","36","Fabrication de jeux et jouets"
"36.6","36","Autres industries diverses"
"37.1","37","Récupération de matières métalliques recyclables"
"37.2","37","Récupération de matières non métalliques recyclables"
"40.1","40","Production et distribution d'électricité"
"40.2","40","Production et distribution de combustibles gazeux"
"40.3","40","Production et distribution de chaleur"
"41.0","41","Captage, traitement et distribution d'eau"
"45.1","45","Préparation des sites"
"45.2","45","Construction d'ouvrages de bâtiment ou de génie civil"
"45.3","45","Travaux d'installation"
"45.4","45","Travaux de finition"
"45.5","45","Location avec opérateur de matériel de construction"
"50.1","50","Commerce de véhicules automobiles"
"50.2","50","Entretien et réparation de véhicules automobiles"
"50.3","50","Commerce d'équipements automobiles"
"50.4","50","Commerce et réparation de motocycles"
"50.5","50","Commerce de détail de carburants"
"51.1","51","Intermédiaires du commerce de gros"
"51.2","51","Commerce de gros de produits agricoles bruts"
"51.3","51","Commerce de gros de produits alimentaires"
"51.4","51","Commerce de gros de biens de consommation non alimentaires"
"51.5","51","Commerce de gros de produits intermédiaires non agricoles"
"51.6","51","Commerce de gros d'équipements industriels"
"51.7","51","Commerce de gros non spécialisé"
"52.1","52","Commerce de détail en magasin non spécialisé"
"52.2","52","Commerce de détail alimentaire en magasin spécialisé"
"52.3","52","Commerce de détail de produits pharmaceutiques et de parfumerie"
"52.4","52","Autres commerces de détail en magasin spécialisé"
"52.5","52","Commerce de détail de biens d'occasion"
"52.6","52","Commerce de détail hors magasin"
"52.7","52","Réparation d'articles personnels et domestiques"
"55.1","55","Hôtels"
"55.2","55","Autres moyens d'hébergement de courte durée"
"55.3","55","Restaurants"
"55.4","55","Cafés"
"55.5","55","Cantines et traiteurs"
"60.1","60","Transports ferroviaires"
"60.2","60","Transports urbains et routiers"
"60.3","60","Transports par conduites"
"61.1","61","Transports maritimes et côtiers"
"61.2","61","Transports fluviaux"
"62.1","62","Transports aériens réguliers"
"62.2","62","Transports aériens non réguliers"
"62.3","62","Transports spatiaux"
"63.1","63","Manutention et entreposage"
"63.2","63","Gestion d'infrastructures de transports"
"63.3","63","Agences de voyage"
"63.4","63","Organisation du transport de fret"
"64.1","64","Activités de poste et de courrier"
"64.2","64","Télécommunications"
"65.1","65","Intermédiation monétaire"
"65.2","65","Autres intermédiations financières"
"66.0","66","Assurance"
"67.1","67","Auxiliaires financiers"
"67.2","67","Auxiliaires d'assurance"
"70.1","70","Activités immobilières pour compte propre"
"70.2","70","Location de biens immobiliers"
"70.3","70","Activités immobilières pour compte de tiers"
"71.1","71","Location de véhicules automobiles"
"71.2","71","Location d'autres matériels de transport"
"71.3","71","Location de machines et équipements"
"71.4","71","Location de biens personnels et domestiques"
"72.1","72","Conseil en systèmes informatiques"
"72.2","72","Réalisation de logiciels"
"72.3","72","Traitement de données"
"72.4","72","Activités de banques de données"
"72.5","72","Entretien et réparation de machines de bureau et de matériel informatique"
"72.6","72","Autres activités rattachées à l'informatique"
"73.1","73","Recherche-développement en sciences physiques et naturelles"
"73.2","73","Recherche-développement en sciences humaines et sociales"
"74.1","74","Activités juridiques, comptables et de conseil de gestion"
"74.2","74","Activités d'architecture et d'ingénierie"
"74.3","74","Activités de contrôle et analyses techniques"
"74.4","74","Publicité"
"74.5","74","Sélection et fourniture de personnel"
"74.6","74","Enquêtes et sécurité"
"74.7","74","Activités de nettoyage"
"74.8","74","Services divers fournis principalement aux entreprises"
"75.1","75","Administration générale, économique et sociale"
"75.2","75","Services de prérogative publique"
"75.3","75","Sécurité sociale obligatoire"
"80.1","80","Enseignement primaire"
"80.2","80","Enseignement secondaire"
"80.3","80","Enseignement supérieur"
"80.4","80","Formation permanente et autres activités d'enseignement"
"85.1","85","Activités pour la santé humaine"
"85.2","85","Activités vétérinaires"
"85.3","85","Action sociale"
"90.0","90","Assainissement, voirie et gestion des déchets"
"91.1","91","Organisations économiques"
"91.2","91","Syndicats de salariés"
"91.3","91","Autres organisations associatives"
"92.1","92","Activités cinématographiques et vidéo"
"92.2","92","Activités de radio et de télévision"
"92.3","92","Autres activités de spectacle"
"92.4","92","Agences de presse"
"92.5","92","Autres activités culturelles"
"92.6","92","Activités liées au sport"
"92.7","92","Activités récréatives"
"93.0","93","Services personnels"
"95.0","95","Services domestiques"
"99.0","99","Activités extra-territoriales"
