"id_nap1973_lv1_section","libelle"
"U00","Sans activité ou en attente d'affectation"
"U01","Agriculture, sylviculture, pêche"
"U02","Industries agricoles et alimentaires"
"U03","Production et distribution d'énergie"
"U04","Industries des biens intermédiaires"
"U05","Industries des biens d'équipement"
"U06","Industries des biens de consommation courante"
"U07","Industries de mise en oeuvre du bâtiment et du génie civil et agricole"
"U08","Commerce"
"U09","Transports et télécommunications"
"U10","Services marchands"
"U11","Location de biens immobiliers"
"U12","Assurances"
"U13","Institutions financières"
"U14","Services non marchands"
"U19","Représentation diplomatique étrangère en France ; organismes internationaux"
